module pustaka-api

go 1.15

require (
	github.com/gin-gonic/gin v1.7.7
	github.com/go-playground/validator/v10 v10.10.1
	github.com/golang/protobuf v1.5.2 // indirect
	github.com/json-iterator/go v1.1.12 // indirect
	github.com/mattn/go-isatty v0.0.14 // indirect
	github.com/modern-go/concurrent v0.0.0-20180306012644-bacd9c7ef1dd // indirect
	github.com/ugorji/go v1.2.7 // indirect
	golang.org/x/crypto v0.0.0-20220312131142-6068a2e6cfdc // indirect
	golang.org/x/sys v0.0.0-20220310020820-b874c991c1a5 // indirect
	google.golang.org/protobuf v1.27.1 // indirect
	gopkg.in/yaml.v2 v2.4.0 // indirect
	gorm.io/driver/mysql v1.3.2
	gorm.io/gorm v1.23.2
)
